{
    "job_title": null,
    "datafile": "None",
    "symmetry": "ALL",
    "ispg": "None",
    "search": true,
    "refine": true,
    "tilt": true,
    "ncycle": 4000,
    "origh": 0.0,
    "origk": 0.0,
    "tilth": 0.0,
    "tiltk": 0.0,
    "stepsize": 1.0,
    "phasesize": 61,
    "alpha": 1.0,
    "beta": 1.0,
    "gamma": 1.0,
    "rin": 10.0,
    "rout": 100.0,
    "cs": 1.0,
    "kv": 100.0,
    "ilist": true,
    "rot180": 0,
    "iqmax": 10
}