<?xml version="1.0" encoding="UTF-8" standalone="no"?>
<!-- Created with Inkscape (http://www.inkscape.org/) -->

<svg
   xmlns:dc="http://purl.org/dc/elements/1.1/"
   xmlns:cc="http://creativecommons.org/ns#"
   xmlns:rdf="http://www.w3.org/1999/02/22-rdf-syntax-ns#"
   xmlns:svg="http://www.w3.org/2000/svg"
   xmlns="http://www.w3.org/2000/svg"
   xmlns:sodipodi="http://sodipodi.sourceforge.net/DTD/sodipodi-0.dtd"
   xmlns:inkscape="http://www.inkscape.org/namespaces/inkscape"
   id="svg2"
   version="1.1"
   inkscape:version="0.91 r13725"
   xml:space="preserve"
   width="567.64624"
   height="192.64626"
   viewBox="0 0 567.64624 192.64626"
   sodipodi:docname="splash.svg"
   inkscape:export-filename="/Users/tom/code/devtools/checkout/ccpem/src/ccpem_gui/icons/splash/splash_v1.png"
   inkscape:export-xdpi="90"
   inkscape:export-ydpi="90"><metadata
     id="metadata8"><rdf:RDF><cc:Work
         rdf:about=""><dc:format>image/svg+xml</dc:format><dc:type
           rdf:resource="http://purl.org/dc/dcmitype/StillImage" /><dc:title></dc:title></cc:Work></rdf:RDF></metadata><defs
     id="defs6"><clipPath
       clipPathUnits="userSpaceOnUse"
       id="clipPath18"><path
         d="m 0,154.117 454.117,0 L 454.117,0 0,0 0,154.117 Z"
         id="path20"
         inkscape:connector-curvature="0" /></clipPath><clipPath
       clipPathUnits="userSpaceOnUse"
       id="clipPath30"><path
         d="m 396.293,95.8428 48.49,0 0,-46.5362 -48.49,0 0,46.5362 z"
         id="path32"
         inkscape:connector-curvature="0" /></clipPath><clipPath
       clipPathUnits="userSpaceOnUse"
       id="clipPath46"><path
         d="m 379.008,87.0371 48.568,0 0,-46.3369 -48.568,0 0,46.3369 z"
         id="path48"
         inkscape:connector-curvature="0" /></clipPath><clipPath
       clipPathUnits="userSpaceOnUse"
       id="clipPath62"><path
         d="m 385.059,120.128 47.198,0 0,-48.1016 -47.198,0 0,48.1016 z"
         id="path64"
         inkscape:connector-curvature="0" /></clipPath><clipPath
       clipPathUnits="userSpaceOnUse"
       id="clipPath78"><path
         d="m 315.524,125.271 46.001,0 0,-48.6006 -46.001,0 0,48.6006 z"
         id="path80"
         inkscape:connector-curvature="0" /></clipPath><clipPath
       clipPathUnits="userSpaceOnUse"
       id="clipPath94"><path
         d="m 340.73,78.8594 48.851,0 0,-44.7959 -48.851,0 0,44.7959 z"
         id="path96"
         inkscape:connector-curvature="0" /></clipPath><clipPath
       clipPathUnits="userSpaceOnUse"
       id="clipPath110"><path
         d="m 253.633,77.9824 48.76,0 0,-44.6269 -48.76,0 0,44.6269 z"
         id="path112"
         inkscape:connector-curvature="0" /></clipPath><clipPath
       clipPathUnits="userSpaceOnUse"
       id="clipPath130"><path
         d="m 112.332,84.3105 47.019,0 0,-48.2148 -47.019,0 0,48.2148 z"
         id="path132"
         inkscape:connector-curvature="0" /></clipPath><clipPath
       clipPathUnits="userSpaceOnUse"
       id="clipPath146"><path
         d="m 109.198,105.851 48.466,0 0,-46.5932 -48.466,0 0,46.5932 z"
         id="path148"
         inkscape:connector-curvature="0" /></clipPath><clipPath
       clipPathUnits="userSpaceOnUse"
       id="clipPath166"><path
         d="m 217.585,88.1582 48.549,0 0,-46.2764 -48.549,0 0,46.2764 z"
         id="path168"
         inkscape:connector-curvature="0" /></clipPath><clipPath
       clipPathUnits="userSpaceOnUse"
       id="clipPath182"><path
         d="m 248.388,117.982 47.226,0 0,-48.0826 -47.226,0 0,48.0826 z"
         id="path184"
         inkscape:connector-curvature="0" /></clipPath><clipPath
       clipPathUnits="userSpaceOnUse"
       id="clipPath198"><path
         d="m 293.863,81.5566 46.45,0 0,-48.5254 -46.45,0 0,48.5254 z"
         id="path200"
         inkscape:connector-curvature="0" /></clipPath><clipPath
       clipPathUnits="userSpaceOnUse"
       id="clipPath218"><path
         d="m 177.097,85.9971 48.857,0 0,-44.5498 -48.857,0 0,44.5498 z"
         id="path220"
         inkscape:connector-curvature="0" /></clipPath><clipPath
       clipPathUnits="userSpaceOnUse"
       id="clipPath246"><path
         d="m 301.455,102.737 48.855,0 0,-44.5495 -48.855,0 0,44.5495 z"
         id="path248"
         inkscape:connector-curvature="0" /></clipPath><clipPath
       clipPathUnits="userSpaceOnUse"
       id="clipPath262"><path
         d="m 274.072,104.267 48.852,0 0,-44.7963 -48.852,0 0,44.7963 z"
         id="path264"
         inkscape:connector-curvature="0" /></clipPath><clipPath
       clipPathUnits="userSpaceOnUse"
       id="clipPath278"><path
         d="m 336.869,100.768 48.852,0 0,-44.7973 -48.852,0 0,44.7973 z"
         id="path280"
         inkscape:connector-curvature="0" /></clipPath><clipPath
       clipPathUnits="userSpaceOnUse"
       id="clipPath316"><path
         d="m 74.8354,123.983 31.6936,0 0,-24.3785 -31.6936,0 0,24.3785 z"
         id="path318"
         inkscape:connector-curvature="0" /></clipPath><clipPath
       clipPathUnits="userSpaceOnUse"
       id="clipPath332"><path
         d="m 100.358,98.9351 13.937,0 0,-39.8775 -13.937,0 0,39.8775 z"
         id="path334"
         inkscape:connector-curvature="0" /></clipPath><clipPath
       clipPathUnits="userSpaceOnUse"
       id="clipPath348"><path
         d="m 44.5483,123.868 40.9444,0 0,-26.3109 -40.9444,0 0,26.3109 z"
         id="path350"
         inkscape:connector-curvature="0" /></clipPath><clipPath
       clipPathUnits="userSpaceOnUse"
       id="clipPath364"><path
         d="m 42.2231,95.4839 45.5699,0 0,-41.7915 -45.5699,0 0,41.7915 z"
         id="path366"
         inkscape:connector-curvature="0" /></clipPath><clipPath
       clipPathUnits="userSpaceOnUse"
       id="clipPath380"><path
         d="m 74.0005,86.0283 33.6015,0 0,-37.4629 -33.6015,0 0,37.4629 z"
         id="path382"
         inkscape:connector-curvature="0" /></clipPath></defs><sodipodi:namedview
     pagecolor="#ffffff"
     bordercolor="#666666"
     borderopacity="1"
     objecttolerance="10"
     gridtolerance="10"
     guidetolerance="10"
     inkscape:pageopacity="0"
     inkscape:pageshadow="2"
     inkscape:window-width="1206"
     inkscape:window-height="765"
     id="namedview4"
     showgrid="false"
     inkscape:zoom="1.2120225"
     inkscape:cx="-567.97507"
     inkscape:cy="274.22409"
     inkscape:window-x="102"
     inkscape:window-y="39"
     inkscape:window-maximized="0"
     inkscape:current-layer="g10" /><g
     id="g10"
     inkscape:groupmode="layer"
     inkscape:label="logo_release"
     transform="matrix(1.25,0,0,-1.25,0,192.64625)"><path
       d="m 0.059,0.824 454.059,0 0,153.293 -454.059,0 0,-153.293 z"
       style="fill:#ffffff;fill-opacity:1;fill-rule:nonzero;stroke:none"
       id="path12"
       inkscape:connector-curvature="0" /><g
       id="g14"><g
         id="g16"
         clip-path="url(#clipPath18)"><g
           id="g22"
           transform="translate(359.3672,77.6387)"><path
             d="M 0,0 C -8.247,-0.238 -11.788,5.507 -7.869,12.767 L 6.488,39.366 c 3.918,7.26 10.676,7.46 15.018,0.445 L 37.436,14.066 C 41.776,7.051 38.581,1.115 30.334,0.877 L 0,0 Z"
             style="fill:#abdb92;fill-opacity:1;fill-rule:nonzero;stroke:none"
             id="path24"
             inkscape:connector-curvature="0" /></g><g
           id="g26"><g
             id="g28" /><g
             id="g34"><g
               clip-path="url(#clipPath30)"
               id="g36"
               style="opacity:0.60000598"><g
                 transform="translate(434.4531,95.6631)"
                 id="g38"><path
                   d="M 0,0 C 8.158,1.235 12.367,-4.039 9.356,-11.72 L -1.676,-39.861 c -3.011,-7.681 -9.695,-8.698 -14.853,-2.259 l -18.93,23.627 c -5.158,6.438 -2.705,12.717 5.452,13.951 L 0,0 Z"
                   style="fill:#abdb92;fill-opacity:1;fill-rule:nonzero;stroke:none"
                   id="path40"
                   inkscape:connector-curvature="0" /></g></g></g></g><g
           id="g42"><g
             id="g44" /><g
             id="g50"><g
               clip-path="url(#clipPath46)"
               id="g52"
               style="opacity:0.60000598"><g
                 transform="translate(417.3672,86.8945)"
                 id="g54"><path
                   d="M 0,0 C 8.177,1.096 12.297,-4.249 9.154,-11.877 L -2.358,-39.829 c -3.142,-7.628 -9.843,-8.53 -14.89,-2.004 l -18.522,23.945 c -5.047,6.527 -2.487,12.762 5.69,13.858 L 0,0 Z"
                   style="fill:#abdb92;fill-opacity:1;fill-rule:nonzero;stroke:none"
                   id="path56"
                   inkscape:connector-curvature="0" /></g></g></g></g><g
           id="g58"><g
             id="g60" /><g
             id="g66"><g
               clip-path="url(#clipPath62)"
               id="g68"
               style="opacity:0.60000598"><g
                 transform="translate(428.4424,96.7178)"
                 id="g70"><path
                   d="m 0,0 c 6.128,-5.524 4.72,-12.124 -3.129,-14.667 l -28.756,-9.316 c -7.848,-2.543 -12.873,1.98 -11.166,10.052 l 6.265,29.619 c 1.707,8.072 8.117,10.156 14.245,4.631 L 0,0 Z"
                   style="fill:#d8e8c3;fill-opacity:1;fill-rule:nonzero;stroke:none"
                   id="path72"
                   inkscape:connector-curvature="0" /></g></g></g></g><g
           id="g74"><g
             id="g76" /><g
             id="g82"><g
               clip-path="url(#clipPath78)"
               id="g84"
               style="opacity:0.60000598"><g
                 transform="translate(349.2539,124.043)"
                 id="g86"><path
                   d="M 0,0 C 7.514,3.407 13,-0.522 12.192,-8.732 L 9.23,-38.814 c -0.807,-8.21 -6.962,-11.007 -13.678,-6.215 l -24.643,17.586 c -6.715,4.793 -6.061,11.502 1.452,14.909 L 0,0 Z"
                   style="fill:#d8e8c3;fill-opacity:1;fill-rule:nonzero;stroke:none"
                   id="path88"
                   inkscape:connector-curvature="0" /></g></g></g></g><g
           id="g90"><g
             id="g92" /><g
             id="g98"><g
               clip-path="url(#clipPath94)"
               id="g100"
               style="opacity:0.60000598"><g
                 transform="translate(380.1904,78.8564)"
                 id="g102"><path
                   d="M 0,0 C 8.249,0.15 11.729,-5.631 7.733,-12.849 L -6.905,-39.294 c -3.996,-7.219 -10.756,-7.347 -15.022,-0.286 l -15.656,25.911 c -4.268,7.061 -1.009,12.962 7.24,13.112 L 0,0 Z"
                   style="fill:#d8e8c3;fill-opacity:1;fill-rule:nonzero;stroke:none"
                   id="path104"
                   inkscape:connector-curvature="0" /></g></g></g></g><g
           id="g106"><g
             id="g108" /><g
             id="g114"><g
               clip-path="url(#clipPath110)"
               id="g116"
               style="opacity:0.5"><g
                 transform="translate(255.3984,64.9697)"
                 id="g118"><path
                   d="m 0,0 c -4.131,7.141 -0.762,12.987 7.488,12.993 l 30.228,0.02 c 8.25,0.006 11.639,-5.845 7.532,-12.999 L 30.178,-26.241 C 26.07,-33.396 19.329,-33.407 15.197,-26.267 L 0,0 Z"
                   style="fill:#abdb92;fill-opacity:1;fill-rule:nonzero;stroke:none"
                   id="path120"
                   inkscape:connector-curvature="0" /></g></g></g></g><g
           id="g122"
           transform="translate(177.1777,94.0439)"><path
             d="m 0,0 c -5.369,6.264 -3.127,12.629 4.982,14.145 l 29.714,5.552 c 8.11,1.516 12.513,-3.614 9.785,-11.4 L 34.472,-20.272 C 31.744,-28.059 25.119,-29.304 19.75,-23.04 L 0,0 Z"
             style="fill:#c6e7b4;fill-opacity:1;fill-rule:nonzero;stroke:none"
             id="path124"
             inkscape:connector-curvature="0" /></g><g
           id="g126"><g
             id="g128" /><g
             id="g134"><g
               clip-path="url(#clipPath130)"
               id="g136"
               style="opacity:0.5"><g
                 transform="translate(155.4092,61.4258)"
                 id="g138"><path
                   d="m 0,0 c 6.226,-5.414 4.935,-12.038 -2.866,-14.72 l -28.587,-9.827 c -7.802,-2.682 -12.905,1.752 -11.343,9.853 l 5.737,29.724 c 1.564,8.101 7.936,10.299 14.162,4.885 L 0,0 Z"
                   style="fill:#abdb92;fill-opacity:1;fill-rule:nonzero;stroke:none"
                   id="path140"
                   inkscape:connector-curvature="0" /></g></g></g></g><g
           id="g142"><g
             id="g144" /><g
             id="g150"><g
               clip-path="url(#clipPath146)"
               id="g152"
               style="opacity:0.80000299"><g
                 transform="translate(119.5625,59.4492)"
                 id="g154"><path
                   d="M 0,0 C -8.15,-1.275 -12.387,3.978 -9.413,11.674 L 1.481,39.869 c 2.974,7.696 9.653,8.745 14.843,2.332 L 35.367,18.667 C 40.558,12.254 38.135,5.964 29.984,4.689 L 0,0 Z"
                   style="fill:#abdb92;fill-opacity:1;fill-rule:nonzero;stroke:none"
                   id="path156"
                   inkscape:connector-curvature="0" /></g></g></g></g><g
           id="g158"
           transform="translate(196.875,93.0918)"><path
             d="M 0,0 C -2.109,7.976 2.678,12.732 10.639,10.57 L 39.81,2.648 c 7.961,-2.162 9.695,-8.696 3.852,-14.521 L 22.225,-33.246 c -5.843,-5.825 -12.35,-4.066 -14.461,3.91 L 0,0 Z"
             style="fill:#d5ecc6;fill-opacity:1;fill-rule:nonzero;stroke:none"
             id="path160"
             inkscape:connector-curvature="0" /></g><g
           id="g162"><g
             id="g164" /><g
             id="g170"><g
               clip-path="url(#clipPath166)"
               id="g172"
               style="opacity:0.60000598"><g
                 transform="translate(238.4766,83.7363)"
                 id="g174"><path
                   d="m 0,0 c 4.99,6.569 11.686,5.72 14.877,-1.888 l 11.694,-27.873 c 3.193,-7.607 -0.894,-12.994 -9.081,-11.968 l -30.039,3.758 c -8.185,1.026 -10.801,7.239 -5.809,13.808 L 0,0 Z"
                   style="fill:#abdb92;fill-opacity:1;fill-rule:nonzero;stroke:none"
                   id="path176"
                   inkscape:connector-curvature="0" /></g></g></g></g><g
           id="g178"><g
             id="g180" /><g
             id="g186"><g
               clip-path="url(#clipPath182)"
               id="g188"
               style="opacity:0.69999701"><g
                 transform="translate(291.8203,94.4883)"
                 id="g190"><path
                   d="m 0,0 c 6.111,-5.541 4.686,-12.138 -3.17,-14.657 l -28.783,-9.236 c -7.856,-2.519 -12.867,2.018 -11.138,10.084 l 6.349,29.602 c 1.729,8.066 8.146,10.132 14.258,4.591 L 0,0 Z"
                   style="fill:#c8e8b7;fill-opacity:1;fill-rule:nonzero;stroke:none"
                   id="path192"
                   inkscape:connector-curvature="0" /></g></g></g></g><g
           id="g194"><g
             id="g196" /><g
             id="g202"><g
               clip-path="url(#clipPath198)"
               id="g204"
               style="opacity:0.5"><g
                 transform="translate(340.1504,43.3086)"
                 id="g206"><path
                   d="m 0,0 c 1.174,-8.166 -4.131,-12.337 -11.789,-9.269 l -28.06,11.245 c -7.658,3.068 -8.624,9.759 -2.147,14.87 l 23.767,18.75 c 6.477,5.11 12.737,2.609 13.911,-5.557 L 0,0 Z"
                   style="fill:#6eb52c;fill-opacity:1;fill-rule:nonzero;stroke:none"
                   id="path208"
                   inkscape:connector-curvature="0" /></g></g></g></g><g
           id="g210"
           transform="translate(225.8711,71.1162)"><path
             d="M 0,0 C -8.247,-0.238 -11.788,5.507 -7.869,12.767 L 6.488,39.366 c 3.919,7.26 10.677,7.46 15.018,0.445 L 37.436,14.066 C 41.776,7.051 38.581,1.115 30.334,0.877 L 0,0 Z"
             style="fill:#abdb92;fill-opacity:1;fill-rule:nonzero;stroke:none"
             id="path212"
             inkscape:connector-curvature="0" /></g><g
           id="g214"><g
             id="g216" /><g
             id="g222"><g
               clip-path="url(#clipPath218)"
               id="g224"
               style="opacity:0.80000299"><g
                 transform="translate(186.3691,41.4473)"
                 id="g226"><path
                   d="M 0,0 C -8.25,-0.016 -11.635,5.822 -7.521,12.974 L 7.551,39.176 c 4.113,7.15 10.875,7.168 15.024,0.038 L 37.804,13.048 C 41.953,5.918 38.6,0.071 30.35,0.056 L 0,0 Z"
                   style="fill:#d8e8c3;fill-opacity:1;fill-rule:nonzero;stroke:none"
                   id="path228"
                   inkscape:connector-curvature="0" /></g></g></g></g><g
           id="g230"
           transform="translate(140.8125,68.6221)"><path
             d="m 0,0 c -4.132,7.141 -0.762,12.988 7.488,12.993 l 30.227,0.021 c 8.25,0.005 11.639,-5.845 7.533,-13 L 30.177,-26.242 C 26.07,-33.397 19.33,-33.409 15.198,-26.269 L 0,0 Z"
             style="fill:#aedc95;fill-opacity:1;fill-rule:nonzero;stroke:none"
             id="path232"
             inkscape:connector-curvature="0" /></g><g
           id="g234"
           transform="translate(163.7266,82.8086)"><path
             d="m 0,0 c -4.131,7.141 -0.762,12.987 7.488,12.993 l 30.227,0.019 c 8.25,0.006 11.64,-5.845 7.533,-12.999 L 30.178,-26.243 C 26.07,-33.397 19.33,-33.409 15.199,-26.269 L 0,0 Z"
             style="fill:#abdb92;fill-opacity:1;fill-rule:nonzero;stroke:none"
             id="path236"
             inkscape:connector-curvature="0" /></g><g
           id="g238"
           transform="translate(137.6885,84.9629)"><path
             d="m 0,0 c -7.647,3.093 -8.584,9.775 -2.08,14.851 l 23.831,18.595 c 6.504,5.075 12.773,2.544 13.932,-5.624 l 4.251,-29.971 c 1.158,-8.168 -4.152,-12.322 -11.8,-9.228 L 0,0 Z"
             style="fill:#c6e7b4;fill-opacity:1;fill-rule:nonzero;stroke:none"
             id="path240"
             inkscape:connector-curvature="0" /></g><g
           id="g242"><g
             id="g244" /><g
             id="g250"><g
               clip-path="url(#clipPath246)"
               id="g252"
               style="opacity:0.80000299"><g
                 transform="translate(310.7266,58.1875)"
                 id="g254"><path
                   d="M 0,0 C -8.25,-0.016 -11.634,5.822 -7.521,12.974 L 7.551,39.176 c 4.113,7.15 10.875,7.168 15.024,0.038 L 37.803,13.049 C 41.952,5.919 38.598,0.072 30.348,0.057 L 0,0 Z"
                   style="fill:#688e4f;fill-opacity:1;fill-rule:nonzero;stroke:none"
                   id="path256"
                   inkscape:connector-curvature="0" /></g></g></g></g><g
           id="g258"><g
             id="g260" /><g
             id="g266"><g
               clip-path="url(#clipPath262)"
               id="g268"
               style="opacity:0.60000598"><g
                 transform="translate(313.5332,104.2637)"
                 id="g270"><path
                   d="M 0,0 C 8.248,0.15 11.729,-5.631 7.732,-12.85 L -6.906,-39.295 c -3.995,-7.218 -10.755,-7.346 -15.022,-0.285 l -15.656,25.911 c -4.267,7.061 -1.008,12.962 7.24,13.112 L 0,0 Z"
                   style="fill:#abdb92;fill-opacity:1;fill-rule:nonzero;stroke:none"
                   id="path272"
                   inkscape:connector-curvature="0" /></g></g></g></g><g
           id="g274"><g
             id="g276" /><g
             id="g282"><g
               clip-path="url(#clipPath278)"
               id="g284"
               style="opacity:0.60000598"><g
                 transform="translate(376.3301,100.7646)"
                 id="g286"><path
                   d="M 0,0 C 8.248,0.151 11.729,-5.63 7.732,-12.849 L -6.906,-39.295 c -3.994,-7.219 -10.754,-7.347 -15.022,-0.286 l -15.656,25.912 c -4.267,7.061 -1.008,12.962 7.24,13.113 L 0,0 Z"
                   style="fill:#abdb92;fill-opacity:1;fill-rule:nonzero;stroke:none"
                   id="path288"
                   inkscape:connector-curvature="0" /></g></g></g></g><g
           id="g290"
           transform="translate(154.6191,49.7549)"><path
             d="m 0,0 c -14.57,0 -25.428,11.357 -25.428,25.784 0,14.286 10.643,25.929 25.785,25.929 9.214,0 14.787,-3.214 19.573,-7.786 L 14.286,37.428 C 10.285,41.143 6,43.643 0.285,43.643 c -9.57,0 -16.498,-7.858 -16.498,-17.716 0,-9.857 6.928,-17.855 16.498,-17.855 6.145,0 10.072,2.499 14.358,6.5 L 20.286,8.856 C 15.072,3.43 9.358,0 0,0"
             style="fill:#1d1d1b;fill-opacity:1;fill-rule:nonzero;stroke:none"
             id="path292"
             inkscape:connector-curvature="0" /></g><g
           id="g294"
           transform="translate(205.9004,49.7549)"><path
             d="m 0,0 c -14.572,0 -25.428,11.357 -25.428,25.784 0,14.286 10.641,25.929 25.784,25.929 9.215,0 14.787,-3.214 19.572,-7.786 l -5.643,-6.499 c -4,3.715 -8.285,6.215 -14,6.215 -9.571,0 -16.5,-7.858 -16.5,-17.716 0,-9.857 6.929,-17.855 16.5,-17.855 6.144,0 10.072,2.499 14.358,6.5 L 20.285,8.856 C 15.071,3.43 9.356,0 0,0"
             style="fill:#1d1d1b;fill-opacity:1;fill-rule:nonzero;stroke:none"
             id="path296"
             inkscape:connector-curvature="0" /></g><g
           id="g298"
           transform="translate(254.3965,92.6104)"><path
             d="m 0,0 -10.215,0 0,-18 L 0,-18 c 6.643,0 10.785,3.645 10.785,8.999 C 10.785,-3.072 6.57,0 0,0 m -0.286,-25.929 -9.929,0 0,-16.069 -8.786,0 0,50 19.714,0 c 11.643,0 19,-6.574 19,-16.787 0,-11.285 -8.999,-17.144 -19.999,-17.144"
             style="fill:#1d1d1b;fill-opacity:1;fill-rule:nonzero;stroke:none"
             id="path300"
             inkscape:connector-curvature="0" /></g><path
           d="m 280.678,76.753 21.143,0 0,-8.499 -21.143,0 0,8.499 z"
           style="fill:#1d1d1b;fill-opacity:1;fill-rule:nonzero;stroke:none"
           id="path302"
           inkscape:connector-curvature="0" /><g
           id="g304"
           transform="translate(349.3174,92.7539)"><path
             d="m 0,0 -28.285,0 0,-13.001 25.071,0 0,-7.856 -25.071,0 0,-13.429 28.642,0 0,-7.856 -37.428,0 0,50 L 0,7.858 0,0 Z"
             style="fill:#1d1d1b;fill-opacity:1;fill-rule:nonzero;stroke:none"
             id="path306"
             inkscape:connector-curvature="0" /></g><g
           id="g308"
           transform="translate(384.6719,62.8984)"><path
             d="m 0,0 -0.287,0 -15.643,23.428 0,-35.714 -8.642,0 0,50 9.357,0 L 0,14.069 l 15.213,23.645 9.357,0 0,-50 -8.785,0 0,35.856 L 0,0 Z"
             style="fill:#1d1d1b;fill-opacity:1;fill-rule:nonzero;stroke:none"
             id="path310"
             inkscape:connector-curvature="0" /></g><g
           id="g312"><g
             id="g314" /><g
             id="g320"><g
               clip-path="url(#clipPath316)"
               id="g322"
               style="opacity:0.30000299"><g
                 transform="translate(103.9063,100.0342)"
                 id="g324"><path
                   d="m 0,0 c 4.766,1.754 2.855,6.625 -4.246,10.825 l -18.332,10.844 c -7.102,4.2 -8.613,2.431 -3.361,-3.931 L -18.215,8.38 C -12.963,2.018 -4.766,-1.753 0,0"
                   style="fill:#d8e8c3;fill-opacity:1;fill-rule:nonzero;stroke:none"
                   id="path326"
                   inkscape:connector-curvature="0" /></g></g></g></g><g
           id="g328"><g
             id="g330" /><g
             id="g336"><g
               clip-path="url(#clipPath332)"
               id="g338"
               style="opacity:0.80000299"><g
                 transform="translate(101.957,81.3174)"
                 id="g340"><path
                   d="M 0,0 C -3.078,7.654 -1.576,15.418 3.338,17.252 8.252,19.087 12.285,13.838 12.3,5.588 l 0.038,-21.327 c 0.016,-8.25 -2.492,-8.738 -5.57,-1.083 L 0,0 Z"
                   style="fill:#d8e8c3;fill-opacity:1;fill-rule:nonzero;stroke:none"
                   id="path342"
                   inkscape:connector-curvature="0" /></g></g></g></g><g
           id="g344"><g
             id="g346" /><g
             id="g352"><g
               clip-path="url(#clipPath348)"
               id="g354"
               style="opacity:0.19999701"><g
                 transform="translate(74.7578,119.0957)"
                 id="g356"><path
                   d="m 0,0 c -5.252,6.362 -13.848,6.363 -19.102,0.003 l -8.339,-10.098 c -5.254,-6.36 -2.803,-11.509 5.446,-11.443 l 24.515,0.197 c 8.249,0.067 10.701,5.326 5.449,11.688 L 0,0 Z"
                   style="fill:#558854;fill-opacity:1;fill-rule:nonzero;stroke:none"
                   id="path358"
                   inkscape:connector-curvature="0" /></g></g></g></g><g
           id="g360"><g
             id="g362" /><g
             id="g368"><g
               clip-path="url(#clipPath364)"
               id="g370"
               style="opacity:0.60000598"><g
                 transform="translate(51.4238,95.2666)"
                 id="g372"><path
                   d="M 0,0 C -8.25,-0.066 -11.576,-5.937 -7.393,-13.048 L 6.275,-36.273 c 4.184,-7.111 10.946,-7.061 15.024,0.11 l 13.347,23.462 C 38.725,-5.53 35.313,0.283 27.062,0.217 L 0,0 Z"
                   style="fill:#558854;fill-opacity:1;fill-rule:nonzero;stroke:none"
                   id="path374"
                   inkscape:connector-curvature="0" /></g></g></g></g><g
           id="g376"><g
             id="g378" /><g
             id="g384"><g
               clip-path="url(#clipPath380)"
               id="g386"
               style="opacity:0.60000598"><g
                 transform="translate(75.7314,60.2568)"
                 id="g388"><path
                   d="m 0,0 c -4.079,-7.171 -0.698,-12.396 7.515,-11.613 l 14.056,1.342 c 8.213,0.784 12.382,7.675 9.266,15.314 l -6.016,14.74 c -3.116,7.639 -9.004,8.022 -13.084,0.851 L 0,0 Z"
                   style="fill:#56af31;fill-opacity:1;fill-rule:nonzero;stroke:none"
                   id="path390"
                   inkscape:connector-curvature="0" /></g></g></g></g><g
           id="g392"
           transform="translate(25.1899,40.3711)"><path
             d="m 0,0 c -4.763,2.75 -8.651,9.5 -8.641,15 l 0.075,38.828 c 0.011,5.5 3.912,12.257 8.67,15.017 l 33.589,19.479 c 4.758,2.759 12.547,2.767 17.31,0.017 L 84.46,69.024 c 4.764,-2.75 8.652,-9.5 8.642,-15 L 93.026,15.196 C 93.016,9.696 89.115,2.938 84.357,0.18 L 50.767,-19.3 c -4.758,-2.759 -12.547,-2.766 -17.31,-0.016 L 0,0 Z"
             style="fill:none;stroke:#1d1d1b;stroke-width:7;stroke-linecap:butt;stroke-linejoin:miter;stroke-miterlimit:10;stroke-dasharray:none;stroke-opacity:1"
             id="path394"
             inkscape:connector-curvature="0" /></g></g></g><text
       transform="scale(1,-1)"
       style="font-variant:normal;font-weight:bold;font-stretch:normal;font-size:19px;font-family:'Gotham Bold';-inkscape-font-specification:GothamBold;writing-mode:lr-tb;fill:#808080;fill-opacity:1;fill-rule:nonzero;stroke:none;"
       id="text396"
       x="384.66809"
       y="-18.606781"><tspan
         x="384.66809"
         y="-18.606781"
         sodipodi:role="line"
         id="tspan398">v1</tspan></text>
</g></svg>