GFORTRAN module version '0' created from ./source/ShapeM-XtAv1.3.f90 on Tue Jun 30 13:03:48 2015
MD5:1019bda196bfe34d26c0be3dfdedde5d -- If you edit this, you'll get what you deserve.

(() () () () () () () () () () () () () () () () () () () () () () () ()
() () ())

()

()

()

()

(2 'aa' 'image_arrays2' 'aa' 1 ((VARIABLE UNKNOWN-INTENT UNKNOWN-PROC
UNKNOWN UNKNOWN ALLOCATABLE DIMENSION) (REAL 4 0 0 REAL ()) 0 0 () (3
DEFERRED () () () () () ()) 0 () () () 0 0)
3 'cnv1' 'image_arrays2' 'cnv1' 1 ((VARIABLE UNKNOWN-INTENT UNKNOWN-PROC
UNKNOWN UNKNOWN ALLOCATABLE DIMENSION) (REAL 4 0 0 REAL ()) 0 0 () (3
DEFERRED () () () () () ()) 0 () () () 0 0)
4 'cnv2' 'image_arrays2' 'cnv2' 1 ((VARIABLE UNKNOWN-INTENT UNKNOWN-PROC
UNKNOWN UNKNOWN ALLOCATABLE DIMENSION) (REAL 4 0 0 REAL ()) 0 0 () (3
DEFERRED () () () () () ()) 0 () () () 0 0)
5 'corr1' 'image_arrays2' 'corr1' 1 ((VARIABLE UNKNOWN-INTENT
UNKNOWN-PROC UNKNOWN UNKNOWN ALLOCATABLE DIMENSION) (REAL 4 0 0 REAL ())
0 0 () (3 DEFERRED () () () () () ()) 0 () () () 0 0)
6 'image_arrays2' 'image_arrays2' 'image_arrays2' 1 ((MODULE
UNKNOWN-INTENT UNKNOWN-PROC UNKNOWN UNKNOWN) (UNKNOWN 0 0 0 UNKNOWN ())
0 0 () () 0 () () () 0 0)
7 'lcf' 'image_arrays2' 'lcf' 1 ((VARIABLE UNKNOWN-INTENT UNKNOWN-PROC
UNKNOWN UNKNOWN ALLOCATABLE DIMENSION) (REAL 4 0 0 REAL ()) 0 0 () (3
DEFERRED () () () () () ()) 0 () () () 0 0)
8 'rotmask' 'image_arrays2' 'rotmask' 1 ((VARIABLE UNKNOWN-INTENT
UNKNOWN-PROC UNKNOWN UNKNOWN ALLOCATABLE DIMENSION) (REAL 4 0 0 REAL ())
0 0 () (3 DEFERRED () () () () () ()) 0 () () () 0 0)
9 'rotsobj' 'image_arrays2' 'rotsobj' 1 ((VARIABLE UNKNOWN-INTENT
UNKNOWN-PROC UNKNOWN UNKNOWN ALLOCATABLE DIMENSION) (REAL 4 0 0 REAL ())
0 0 () (3 DEFERRED () () () () () ()) 0 () () () 0 0)
10 'v' 'image_arrays2' 'v' 1 ((VARIABLE UNKNOWN-INTENT UNKNOWN-PROC
UNKNOWN UNKNOWN ALLOCATABLE DIMENSION) (REAL 4 0 0 REAL ()) 0 0 () (3
DEFERRED () () () () () ()) 0 () () () 0 0)
)

('aa' 0 2 'cnv1' 0 3 'cnv2' 0 4 'corr1' 0 5 'image_arrays2' 0 6 'lcf' 0
7 'rotmask' 0 8 'rotsobj' 0 9 'v' 0 10)
