GFORTRAN module version '0' created from ./ext/DockEMlibV2.03.f90 on Fri Jul  3 22:01:55 2015
MD5:1f4cf3c7684fc5bce76f8ddbdd550819 -- If you edit this, you'll get what you deserve.

(() () () () () () () () () () () () () () () () () () () () () () () ()
() () ())

()

()

()

()

(2 'image_arrays' 'image_arrays' 'image_arrays' 1 ((MODULE
UNKNOWN-INTENT UNKNOWN-PROC UNKNOWN UNKNOWN) (UNKNOWN 0 0 0 UNKNOWN ())
0 0 () () 0 () () () 0 0)
3 'map' 'image_arrays' 'map' 1 ((VARIABLE UNKNOWN-INTENT UNKNOWN-PROC
UNKNOWN UNKNOWN ALLOCATABLE DIMENSION) (REAL 4 0 0 REAL ()) 0 0 () (3
DEFERRED () () () () () ()) 0 () () () 0 0)
4 'searchmap' 'image_arrays' 'searchmap' 1 ((VARIABLE UNKNOWN-INTENT
UNKNOWN-PROC UNKNOWN UNKNOWN ALLOCATABLE DIMENSION) (REAL 4 0 0 REAL ())
0 0 () (3 DEFERRED () () () () () ()) 0 () () () 0 0)
5 'smap' 'image_arrays' 'smap' 1 ((VARIABLE UNKNOWN-INTENT UNKNOWN-PROC
UNKNOWN UNKNOWN ALLOCATABLE DIMENSION) (REAL 4 0 0 REAL ()) 0 0 () (3
DEFERRED () () () () () ()) 0 () () () 0 0)
)

('image_arrays' 0 2 'map' 0 3 'searchmap' 0 4 'smap' 0 5)
